<?xml version="1.0" encoding="UTF-8" standalone="no"?>
<!-- Created with Inkscape (http://www.inkscape.org/) -->

<svg
   xmlns:dc="http://purl.org/dc/elements/1.1/"
   xmlns:cc="http://creativecommons.org/ns#"
   xmlns:rdf="http://www.w3.org/1999/02/22-rdf-syntax-ns#"
   xmlns:svg="http://www.w3.org/2000/svg"
   xmlns="http://www.w3.org/2000/svg"
   xmlns:sodipodi="http://sodipodi.sourceforge.net/DTD/sodipodi-0.dtd"
   xmlns:inkscape="http://www.inkscape.org/namespaces/inkscape"
   width="210mm"
   height="297mm"
   viewBox="0 0 744.09448819 1052.3622047"
   id="svg2"
   version="1.1"
   inkscape:version="0.91 r13725"
   sodipodi:docname="conc-append.svg"
   inkscape:export-filename="C:\cygwin\home\axel22\workspaces\scala\progfun-slides\images\conc-append.png"
   inkscape:export-xdpi="55.77"
   inkscape:export-ydpi="55.77">
  <defs
     id="defs4" />
  <sodipodi:namedview
     id="base"
     pagecolor="#ffffff"
     bordercolor="#666666"
     borderopacity="1.0"
     inkscape:pageopacity="0.0"
     inkscape:pageshadow="2"
     inkscape:zoom="0.35355339"
     inkscape:cx="516.56203"
     inkscape:cy="466.25888"
     inkscape:document-units="px"
     inkscape:current-layer="layer1"
     showgrid="false"
     inkscape:window-width="1600"
     inkscape:window-height="877"
     inkscape:window-x="-4"
     inkscape:window-y="-4"
     inkscape:window-maximized="1" />
  <metadata
     id="metadata7">
    <rdf:RDF>
      <cc:Work
         rdf:about="">
        <dc:format>image/svg+xml</dc:format>
        <dc:type
           rdf:resource="http://purl.org/dc/dcmitype/StillImage" />
        <dc:title />
      </cc:Work>
    </rdf:RDF>
  </metadata>
  <g
     inkscape:label="Layer 1"
     inkscape:groupmode="layer"
     id="layer1">
    <rect
       transform="matrix(0.70710678,-0.70710678,0.70710678,0.70710678,0,0)"
       y="81.875366"
       x="-449.68457"
       height="76"
       width="76"
       id="rect4436"
       style="fill:none;fill-opacity:1;stroke:#000000;stroke-width:5;stroke-miterlimit:4;stroke-dasharray:none;stroke-dashoffset:0;stroke-opacity:1" />
    <path
       style="fill:none;fill-rule:evenodd;stroke:#000000;stroke-width:5;stroke-linecap:butt;stroke-linejoin:miter;stroke-miterlimit:4;stroke-dasharray:none;stroke-opacity:1"
       d="m -227.78715,410.36221 -134.00001,317.99999 318.000003,0 -144.000003,-315.99999"
       id="path4440"
       inkscape:connector-curvature="0" />
    <path
       sodipodi:nodetypes="cc"
       inkscape:connector-curvature="0"
       id="path4474"
       d="M -3.630757,304.08132 -175.90656,349.99785"
       style="fill:none;fill-rule:evenodd;stroke:#000000;stroke-width:5;stroke-linecap:butt;stroke-linejoin:miter;stroke-miterlimit:4;stroke-dasharray:none;stroke-dashoffset:0;stroke-opacity:1" />
    <rect
       style="fill:none;fill-opacity:1;stroke:#000000;stroke-width:3.79084969;stroke-miterlimit:4;stroke-dasharray:none;stroke-dashoffset:0;stroke-opacity:1"
       id="rect5354"
       width="112.20915"
       height="112.20915"
       x="-3.6045761"
       y="225.75764" />
    <text
       xml:space="preserve"
       style="font-style:normal;font-weight:normal;font-size:105.40853882px;line-height:125%;font-family:sans-serif;letter-spacing:0px;word-spacing:0px;fill:#000000;fill-opacity:1;stroke:none;stroke-width:1px;stroke-linecap:butt;stroke-linejoin:miter;stroke-opacity:1"
       x="17.429169"
       y="319.77072"
       id="text5356"
       sodipodi:linespacing="125%"><tspan
         sodipodi:role="line"
         id="tspan5358"
         x="17.429169"
         y="319.77072">A</tspan></text>
    <path
       style="fill:none;fill-rule:evenodd;stroke:#000000;stroke-width:5;stroke-linecap:butt;stroke-linejoin:miter;stroke-miterlimit:4;stroke-dasharray:none;stroke-dashoffset:0;stroke-opacity:1"
       d="m 89.000231,338.02245 31.370949,93.99979"
       id="path5362"
       inkscape:connector-curvature="0"
       sodipodi:nodetypes="cc" />
    <path
       style="fill:none;fill-rule:evenodd;stroke:#000000;stroke-width:5;stroke-linecap:butt;stroke-linejoin:miter;stroke-miterlimit:4;stroke-dasharray:none;stroke-dashoffset:0;stroke-opacity:1"
       d="m 282.04038,221.85592 -172.2758,45.91653"
       id="path5364"
       inkscape:connector-curvature="0"
       sodipodi:nodetypes="cc" />
    <rect
       y="143.53224"
       x="282.06656"
       height="112.20915"
       width="112.20915"
       id="rect5366"
       style="fill:none;fill-opacity:1;stroke:#000000;stroke-width:3.79084969;stroke-miterlimit:4;stroke-dasharray:none;stroke-dashoffset:0;stroke-opacity:1" />
    <text
       sodipodi:linespacing="125%"
       id="text5368"
       y="237.54532"
       x="303.10031"
       style="font-style:normal;font-weight:normal;font-size:105.40853882px;line-height:125%;font-family:sans-serif;letter-spacing:0px;word-spacing:0px;fill:#000000;fill-opacity:1;stroke:none;stroke-width:1px;stroke-linecap:butt;stroke-linejoin:miter;stroke-opacity:1"
       xml:space="preserve"><tspan
         y="237.54532"
         x="303.10031"
         id="tspan5370"
         sodipodi:role="line">A</tspan></text>
    <path
       sodipodi:nodetypes="cc"
       inkscape:connector-curvature="0"
       id="path5374"
       d="m 374.67137,255.79705 31.37095,93.99979"
       style="fill:none;fill-rule:evenodd;stroke:#000000;stroke-width:5;stroke-linecap:butt;stroke-linejoin:miter;stroke-miterlimit:4;stroke-dasharray:none;stroke-dashoffset:0;stroke-opacity:1" />
    <path
       sodipodi:nodetypes="cc"
       inkscape:connector-curvature="0"
       id="path5376"
       d="m 567.71152,134.25794 -172.2758,45.91653"
       style="fill:none;fill-rule:evenodd;stroke:#000000;stroke-width:5;stroke-linecap:butt;stroke-linejoin:miter;stroke-miterlimit:4;stroke-dasharray:none;stroke-dashoffset:0;stroke-opacity:1" />
    <rect
       style="fill:none;fill-opacity:1;stroke:#000000;stroke-width:3.79084969;stroke-miterlimit:4;stroke-dasharray:none;stroke-dashoffset:0;stroke-opacity:1"
       id="rect5378"
       width="112.20915"
       height="112.20915"
       x="567.73767"
       y="55.934273" />
    <text
       xml:space="preserve"
       style="font-style:normal;font-weight:normal;font-size:105.40853882px;line-height:125%;font-family:sans-serif;letter-spacing:0px;word-spacing:0px;fill:#000000;fill-opacity:1;stroke:none;stroke-width:1px;stroke-linecap:butt;stroke-linejoin:miter;stroke-opacity:1"
       x="588.77142"
       y="149.94734"
       id="text5380"
       sodipodi:linespacing="125%"><tspan
         sodipodi:role="line"
         id="tspan5382"
         x="588.77142"
         y="149.94734">A</tspan></text>
    <path
       style="fill:none;fill-rule:evenodd;stroke:#000000;stroke-width:5;stroke-linecap:butt;stroke-linejoin:miter;stroke-miterlimit:4;stroke-dasharray:none;stroke-dashoffset:0;stroke-opacity:1"
       d="m 660.34251,168.19907 31.37095,93.99979"
       id="path5386"
       inkscape:connector-curvature="0"
       sodipodi:nodetypes="cc" />
    <rect
       style="fill:none;fill-opacity:1;stroke:#000000;stroke-width:5;stroke-miterlimit:4;stroke-dasharray:none;stroke-dashoffset:0;stroke-opacity:1"
       id="rect5388"
       width="76"
       height="76"
       x="-259.68457"
       y="391.87537"
       transform="matrix(0.70710678,-0.70710678,0.70710678,0.70710678,0,0)" />
    <path
       inkscape:connector-curvature="0"
       id="path5390"
       d="m 134.65781,500.55585 -90.377565,214.47807 214.478085,0 -97.12215,-213.12915"
       style="fill:none;fill-rule:evenodd;stroke:#000000;stroke-width:5;stroke-linecap:butt;stroke-linejoin:miter;stroke-miterlimit:4;stroke-dasharray:none;stroke-opacity:1" />
    <rect
       transform="matrix(0.70710678,-0.70710678,0.70710678,0.70710678,0,0)"
       y="533.87537"
       x="-11.68457"
       height="76"
       width="76"
       id="rect5392"
       style="fill:none;fill-opacity:1;stroke:#000000;stroke-width:5;stroke-miterlimit:4;stroke-dasharray:none;stroke-dashoffset:0;stroke-opacity:1" />
    <path
       style="fill:none;fill-rule:evenodd;stroke:#000000;stroke-width:5;stroke-linecap:butt;stroke-linejoin:miter;stroke-miterlimit:4;stroke-dasharray:none;stroke-opacity:1"
       d="m 414.62175,430.90033 -56.95069,135.15159 135.15161,0 -61.20072,-134.30158"
       id="path5394"
       inkscape:connector-curvature="0" />
    <rect
       style="fill:none;fill-opacity:1;stroke:#000000;stroke-width:5;stroke-miterlimit:4;stroke-dasharray:none;stroke-dashoffset:0;stroke-opacity:1"
       id="rect5396"
       width="76"
       height="76"
       x="257.31543"
       y="672.87537"
       transform="matrix(0.70710678,-0.70710678,0.70710678,0.70710678,0,0)" />
    <path
       inkscape:connector-curvature="0"
       id="path5398"
       d="m 706.92082,339.9945 -33.71045,79.9994 79.99941,0 -36.22614,-79.49626"
       style="fill:none;fill-rule:evenodd;stroke:#000000;stroke-width:5;stroke-linecap:butt;stroke-linejoin:miter;stroke-miterlimit:4;stroke-dasharray:none;stroke-opacity:1" />
    <text
       xml:space="preserve"
       style="font-style:normal;font-weight:normal;font-size:68.74373627px;line-height:125%;font-family:sans-serif;letter-spacing:0px;word-spacing:0px;fill:#000000;fill-opacity:1;stroke:none;stroke-width:1px;stroke-linecap:butt;stroke-linejoin:miter;stroke-opacity:1"
       x="682.81171"
       y="488.64685"
       id="text5400"
       sodipodi:linespacing="125%"><tspan
         sodipodi:role="line"
         id="tspan5402"
         x="682.81171"
         y="488.64685">d<tspan
   style="font-size:44.6834259px;baseline-shift:sub"
   id="tspan5404">1</tspan></tspan></text>
    <text
       sodipodi:linespacing="125%"
       id="text5406"
       y="637.13928"
       x="341.2583"
       style="font-style:normal;font-weight:normal;font-size:68.74373627px;line-height:125%;font-family:sans-serif;letter-spacing:0px;word-spacing:0px;fill:#000000;fill-opacity:1;stroke:none;stroke-width:1px;stroke-linecap:butt;stroke-linejoin:miter;stroke-opacity:1"
       xml:space="preserve"><tspan
         y="637.13928"
         x="341.2583"
         id="tspan5408"
         sodipodi:role="line">d<tspan
   style="font-size:64.99999762%;baseline-shift:sub"
   id="tspan5418">2</tspan>&gt;d<tspan
   id="tspan5410"
   style="font-size:44.6834259px;baseline-shift:sub">1</tspan></tspan></text>
    <text
       xml:space="preserve"
       style="font-style:normal;font-weight:normal;font-size:68.74373627px;line-height:125%;font-family:sans-serif;letter-spacing:0px;word-spacing:0px;fill:#000000;fill-opacity:1;stroke:none;stroke-width:1px;stroke-linecap:butt;stroke-linejoin:miter;stroke-opacity:1"
       x="58.415592"
       y="782.80328"
       id="text5420"
       sodipodi:linespacing="125%"><tspan
         sodipodi:role="line"
         id="tspan5422"
         x="58.415592"
         y="782.80328">d<tspan
   id="tspan5424"
   style="font-size:64.99999762%;baseline-shift:sub">3</tspan>&gt;d<tspan
   style="font-size:44.6834259px;baseline-shift:sub"
   id="tspan5426">2</tspan></tspan></text>
    <rect
       transform="matrix(0.70710678,-0.70710678,0.70710678,0.70710678,0,0)"
       y="921.56165"
       x="976.62915"
       height="76"
       width="76"
       id="rect5448"
       style="fill:none;fill-opacity:1;stroke:#000000;stroke-width:5;stroke-miterlimit:4;stroke-dasharray:none;stroke-dashoffset:0;stroke-opacity:1" />
    <path
       style="fill:none;fill-rule:evenodd;stroke:#000000;stroke-width:5;stroke-linecap:butt;stroke-linejoin:miter;stroke-miterlimit:4;stroke-dasharray:none;stroke-opacity:1"
       d="m 1391.4002,7.210665 -33.7104,79.999405 79.9994,0 -36.2262,-79.496265"
       id="path5450"
       inkscape:connector-curvature="0" />
    <text
       sodipodi:linespacing="125%"
       id="text5452"
       y="157.86304"
       x="1373.2911"
       style="font-style:normal;font-weight:normal;font-size:68.74373627px;line-height:125%;font-family:sans-serif;letter-spacing:0px;word-spacing:0px;fill:#000000;fill-opacity:1;stroke:none;stroke-width:1px;stroke-linecap:butt;stroke-linejoin:miter;stroke-opacity:1"
       xml:space="preserve"><tspan
         y="157.86304"
         x="1373.2911"
         id="tspan5454"
         sodipodi:role="line">1</tspan></text>
    <rect
       style="fill:none;fill-opacity:1;stroke:#000000;stroke-width:5;stroke-miterlimit:4;stroke-dasharray:none;stroke-dashoffset:0;stroke-opacity:1"
       id="rect5468"
       width="76"
       height="76"
       x="616.31543"
       y="1041.8754"
       transform="matrix(0.70710678,-0.70710678,0.70710678,0.70710678,0,0)" />
    <path
       inkscape:connector-curvature="0"
       id="path5470"
       d="m 1217.8951,346.04752 -56.9507,135.15159 135.1516,0 -61.2007,-134.30158"
       style="fill:none;fill-rule:evenodd;stroke:#000000;stroke-width:5;stroke-linecap:butt;stroke-linejoin:miter;stroke-miterlimit:4;stroke-dasharray:none;stroke-opacity:1" />
    <text
       xml:space="preserve"
       style="font-style:normal;font-weight:normal;font-size:68.74373627px;line-height:125%;font-family:sans-serif;letter-spacing:0px;word-spacing:0px;fill:#000000;fill-opacity:1;stroke:none;stroke-width:1px;stroke-linecap:butt;stroke-linejoin:miter;stroke-opacity:1"
       x="1203.5856"
       y="561.35754"
       id="text5472"
       sodipodi:linespacing="125%"><tspan
         sodipodi:role="line"
         id="tspan5474"
         x="1203.5856"
         y="561.35754">1</tspan></text>
    <rect
       style="fill:none;fill-opacity:1;stroke:#000000;stroke-width:5;stroke-miterlimit:4;stroke-dasharray:none;stroke-dashoffset:0;stroke-opacity:1"
       id="rect5476"
       width="76"
       height="76"
       x="463.03113"
       y="1435.1591"
       transform="matrix(0.70710678,-0.70710678,0.70710678,0.70710678,0,0)" />
    <path
       inkscape:connector-curvature="0"
       id="path5478"
       d="m 1391.4002,733.54789 -33.7104,79.99941 79.9994,0 -36.2262,-79.49627"
       style="fill:none;fill-rule:evenodd;stroke:#000000;stroke-width:5;stroke-linecap:butt;stroke-linejoin:miter;stroke-miterlimit:4;stroke-dasharray:none;stroke-opacity:1" />
    <text
       xml:space="preserve"
       style="font-style:normal;font-weight:normal;font-size:68.74373627px;line-height:125%;font-family:sans-serif;letter-spacing:0px;word-spacing:0px;fill:#000000;fill-opacity:1;stroke:none;stroke-width:1px;stroke-linecap:butt;stroke-linejoin:miter;stroke-opacity:1"
       x="1373.2911"
       y="948.20026"
       id="text5480"
       sodipodi:linespacing="125%"><tspan
         sodipodi:role="line"
         id="tspan5482"
         x="1373.2911"
         y="948.20026">1</tspan></text>
    <rect
       transform="matrix(0.70710678,-0.70710678,0.70710678,0.70710678,0,0)"
       y="1314.1591"
       x="344.03113"
       height="76"
       width="76"
       id="rect5484"
       style="fill:none;fill-opacity:1;stroke:#000000;stroke-width:5;stroke-miterlimit:4;stroke-dasharray:none;stroke-dashoffset:0;stroke-opacity:1" />
    <path
       style="fill:none;fill-rule:evenodd;stroke:#000000;stroke-width:5;stroke-linecap:butt;stroke-linejoin:miter;stroke-miterlimit:4;stroke-dasharray:none;stroke-opacity:1"
       d="m 1217.8951,731.11563 -56.9507,135.15159 135.1516,0 -61.2007,-134.30158"
       id="path5486"
       inkscape:connector-curvature="0" />
    <text
       sodipodi:linespacing="125%"
       id="text5488"
       y="946.42566"
       x="1203.5856"
       style="font-style:normal;font-weight:normal;font-size:68.74373627px;line-height:125%;font-family:sans-serif;letter-spacing:0px;word-spacing:0px;fill:#000000;fill-opacity:1;stroke:none;stroke-width:1px;stroke-linecap:butt;stroke-linejoin:miter;stroke-opacity:1"
       xml:space="preserve"><tspan
         y="946.42566"
         x="1203.5856"
         id="tspan5490"
         sodipodi:role="line">1</tspan></text>
    <rect
       style="fill:none;fill-opacity:1;stroke:#000000;stroke-width:5;stroke-miterlimit:4;stroke-dasharray:none;stroke-dashoffset:0;stroke-opacity:1"
       id="rect5492"
       width="76"
       height="76"
       x="1172.6292"
       y="1117.5616"
       transform="matrix(0.70710678,-0.70710678,0.70710678,0.70710678,0,0)" />
    <path
       inkscape:connector-curvature="0"
       id="path5494"
       d="m 1668.5861,7.210665 -33.7104,79.999405 79.9994,0 -36.2262,-79.496265"
       style="fill:none;fill-rule:evenodd;stroke:#000000;stroke-width:5;stroke-linecap:butt;stroke-linejoin:miter;stroke-miterlimit:4;stroke-dasharray:none;stroke-opacity:1" />
    <text
       xml:space="preserve"
       style="font-style:normal;font-weight:normal;font-size:68.74373627px;line-height:125%;font-family:sans-serif;letter-spacing:0px;word-spacing:0px;fill:#000000;fill-opacity:1;stroke:none;stroke-width:1px;stroke-linecap:butt;stroke-linejoin:miter;stroke-opacity:1"
       x="1650.4771"
       y="157.86304"
       id="text5496"
       sodipodi:linespacing="125%"><tspan
         sodipodi:role="line"
         id="tspan5498"
         x="1650.4771"
         y="157.86304">1</tspan></text>
    <text
       sodipodi:linespacing="125%"
       id="text5504"
       y="23.638691"
       x="1508.0103"
       style="font-style:normal;font-weight:normal;font-size:105.40853882px;line-height:125%;font-family:sans-serif;letter-spacing:0px;word-spacing:0px;fill:#000000;fill-opacity:1;stroke:none;stroke-width:1px;stroke-linecap:butt;stroke-linejoin:miter;stroke-opacity:1"
       xml:space="preserve"><tspan
         y="23.638691"
         x="1508.0103"
         id="tspan5506"
         sodipodi:role="line">A</tspan></text>
    <rect
       transform="matrix(0.70710678,-0.70710678,0.70710678,0.70710678,0,0)"
       y="1352.8754"
       x="937.31543"
       height="76"
       width="76"
       id="rect5520"
       style="fill:none;fill-opacity:1;stroke:#000000;stroke-width:5;stroke-miterlimit:4;stroke-dasharray:none;stroke-dashoffset:0;stroke-opacity:1" />
    <path
       style="fill:none;fill-rule:evenodd;stroke:#000000;stroke-width:5;stroke-linecap:butt;stroke-linejoin:miter;stroke-miterlimit:4;stroke-dasharray:none;stroke-opacity:1"
       d="m 1668.5861,339.99451 -33.7104,79.9994 79.9994,0 -36.2262,-79.49626"
       id="path5522"
       inkscape:connector-curvature="0" />
    <text
       sodipodi:linespacing="125%"
       id="text5524"
       y="538.64685"
       x="1650.4771"
       style="font-style:normal;font-weight:normal;font-size:68.74373627px;line-height:125%;font-family:sans-serif;letter-spacing:0px;word-spacing:0px;fill:#000000;fill-opacity:1;stroke:none;stroke-width:1px;stroke-linecap:butt;stroke-linejoin:miter;stroke-opacity:1"
       xml:space="preserve"><tspan
         y="538.64685"
         x="1650.4771"
         id="tspan5526"
         sodipodi:role="line">1</tspan></text>
    <text
       xml:space="preserve"
       style="font-style:normal;font-weight:normal;font-size:105.40853882px;line-height:125%;font-family:sans-serif;letter-spacing:0px;word-spacing:0px;fill:#000000;fill-opacity:1;stroke:none;stroke-width:1px;stroke-linecap:butt;stroke-linejoin:miter;stroke-opacity:1"
       x="1508.0103"
       y="356.42252"
       id="text5528"
       sodipodi:linespacing="125%"><tspan
         sodipodi:role="line"
         id="tspan5530"
         x="1508.0103"
         y="356.42252">A</tspan></text>
    <rect
       style="fill:none;fill-opacity:1;stroke:#000000;stroke-width:5;stroke-miterlimit:4;stroke-dasharray:none;stroke-dashoffset:0;stroke-opacity:1"
       id="rect5532"
       width="76"
       height="76"
       x="661.03174"
       y="1629.1591"
       transform="matrix(0.70710678,-0.70710678,0.70710678,0.70710678,0,0)" />
    <path
       inkscape:connector-curvature="0"
       id="path5534"
       d="m 1668.5861,730.71947 -33.7104,79.9994 79.9994,0 -36.2262,-79.49626"
       style="fill:none;fill-rule:evenodd;stroke:#000000;stroke-width:5;stroke-linecap:butt;stroke-linejoin:miter;stroke-miterlimit:4;stroke-dasharray:none;stroke-opacity:1" />
    <text
       xml:space="preserve"
       style="font-style:normal;font-weight:normal;font-size:68.74373627px;line-height:125%;font-family:sans-serif;letter-spacing:0px;word-spacing:0px;fill:#000000;fill-opacity:1;stroke:none;stroke-width:1px;stroke-linecap:butt;stroke-linejoin:miter;stroke-opacity:1"
       x="1650.4771"
       y="945.37183"
       id="text5536"
       sodipodi:linespacing="125%"><tspan
         sodipodi:role="line"
         id="tspan5538"
         x="1650.4771"
         y="945.37183">1</tspan></text>
    <text
       sodipodi:linespacing="125%"
       id="text5540"
       y="747.14752"
       x="1508.0103"
       style="font-style:normal;font-weight:normal;font-size:105.40853882px;line-height:125%;font-family:sans-serif;letter-spacing:0px;word-spacing:0px;fill:#000000;fill-opacity:1;stroke:none;stroke-width:1px;stroke-linecap:butt;stroke-linejoin:miter;stroke-opacity:1"
       xml:space="preserve"><tspan
         y="747.14752"
         x="1508.0103"
         id="tspan5542"
         sodipodi:role="line">A</tspan></text>
    <rect
       transform="matrix(0.70710678,-0.70710678,0.70710678,0.70710678,0,0)"
       y="1372.1591"
       x="-47.968857"
       height="76"
       width="76"
       id="rect5550"
       style="fill:none;fill-opacity:1;stroke:#000000;stroke-width:5;stroke-miterlimit:4;stroke-dasharray:none;stroke-dashoffset:0;stroke-opacity:1" />
    <path
       style="fill:none;fill-rule:evenodd;stroke:#000000;stroke-width:5;stroke-linecap:butt;stroke-linejoin:miter;stroke-miterlimit:4;stroke-dasharray:none;stroke-opacity:1"
       d="m 977.52909,1044.0159 -90.37756,214.478 214.47807,0 -97.1221,-213.1291"
       id="path5552"
       inkscape:connector-curvature="0" />
    <text
       xml:space="preserve"
       style="font-style:normal;font-weight:normal;font-size:68.74373627px;line-height:125%;font-family:sans-serif;letter-spacing:0px;word-spacing:0px;fill:#000000;fill-opacity:1;stroke:none;stroke-width:1px;stroke-linecap:butt;stroke-linejoin:miter;stroke-opacity:1"
       x="974.48297"
       y="1342.4054"
       id="text5554"
       sodipodi:linespacing="125%"><tspan
         sodipodi:role="line"
         id="tspan5556"
         x="974.48297"
         y="1342.4054">1</tspan></text>
    <text
       sodipodi:linespacing="125%"
       id="text5558"
       y="1340.2002"
       x="1373.2911"
       style="font-style:normal;font-weight:normal;font-size:68.74373627px;line-height:125%;font-family:sans-serif;letter-spacing:0px;word-spacing:0px;fill:#000000;fill-opacity:1;stroke:none;stroke-width:1px;stroke-linecap:butt;stroke-linejoin:miter;stroke-opacity:1"
       xml:space="preserve"><tspan
         y="1340.2002"
         x="1373.2911"
         id="tspan5560"
         sodipodi:role="line">0</tspan></text>
    <text
       xml:space="preserve"
       style="font-style:normal;font-weight:normal;font-size:68.74373627px;line-height:125%;font-family:sans-serif;letter-spacing:0px;word-spacing:0px;fill:#000000;fill-opacity:1;stroke:none;stroke-width:1px;stroke-linecap:butt;stroke-linejoin:miter;stroke-opacity:1"
       x="1203.5856"
       y="1338.4257"
       id="text5562"
       sodipodi:linespacing="125%"><tspan
         sodipodi:role="line"
         id="tspan5564"
         x="1203.5856"
         y="1338.4257">0</tspan></text>
    <text
       xml:space="preserve"
       style="font-style:normal;font-weight:normal;font-size:68.74373627px;line-height:125%;font-family:sans-serif;letter-spacing:0px;word-spacing:0px;fill:#000000;fill-opacity:1;stroke:none;stroke-width:1px;stroke-linecap:butt;stroke-linejoin:miter;stroke-opacity:1"
       x="1373.2911"
       y="560.2002"
       id="text5566"
       sodipodi:linespacing="125%"><tspan
         sodipodi:role="line"
         id="tspan5568"
         x="1373.2911"
         y="560.2002">0</tspan></text>
    <text
       xml:space="preserve"
       style="font-style:normal;font-weight:normal;font-size:55.50901794px;line-height:125%;font-family:sans-serif;letter-spacing:0px;word-spacing:0px;fill:#000000;fill-opacity:1;stroke:none;stroke-width:1px;stroke-linecap:butt;stroke-linejoin:miter;stroke-opacity:1"
       x="1378.5488"
       y="-21.26853"
       id="text5570"
       sodipodi:linespacing="125%"><tspan
         sodipodi:role="line"
         id="tspan5572"
         x="1378.5488"
         y="-21.26853">1</tspan></text>
    <text
       sodipodi:linespacing="125%"
       id="text5574"
       y="-21.26853"
       x="1655.7347"
       style="font-style:normal;font-weight:normal;font-size:55.50901794px;line-height:125%;font-family:sans-serif;letter-spacing:0px;word-spacing:0px;fill:#000000;fill-opacity:1;stroke:none;stroke-width:1px;stroke-linecap:butt;stroke-linejoin:miter;stroke-opacity:1"
       xml:space="preserve"><tspan
         y="-21.26853"
         x="1655.7347"
         id="tspan5576"
         sodipodi:role="line">1</tspan></text>
    <text
       xml:space="preserve"
       style="font-style:normal;font-weight:normal;font-size:55.50901794px;line-height:125%;font-family:sans-serif;letter-spacing:0px;word-spacing:0px;fill:#000000;fill-opacity:1;stroke:none;stroke-width:1px;stroke-linecap:butt;stroke-linejoin:miter;stroke-opacity:1"
       x="1655.7347"
       y="315.3143"
       id="text5578"
       sodipodi:linespacing="125%"><tspan
         sodipodi:role="line"
         id="tspan5580"
         x="1655.7347"
         y="315.3143">1</tspan></text>
    <text
       sodipodi:linespacing="125%"
       id="text5582"
       y="702.80884"
       x="1655.7347"
       style="font-style:normal;font-weight:normal;font-size:55.50901794px;line-height:125%;font-family:sans-serif;letter-spacing:0px;word-spacing:0px;fill:#000000;fill-opacity:1;stroke:none;stroke-width:1px;stroke-linecap:butt;stroke-linejoin:miter;stroke-opacity:1"
       xml:space="preserve"><tspan
         y="702.80884"
         x="1655.7347"
         id="tspan5584"
         sodipodi:role="line">1</tspan></text>
    <text
       xml:space="preserve"
       style="font-style:normal;font-weight:normal;font-size:55.50901794px;line-height:125%;font-family:sans-serif;letter-spacing:0px;word-spacing:0px;fill:#000000;fill-opacity:1;stroke:none;stroke-width:1px;stroke-linecap:butt;stroke-linejoin:miter;stroke-opacity:1"
       x="1381.3773"
       y="702.80884"
       id="text5586"
       sodipodi:linespacing="125%"><tspan
         sodipodi:role="line"
         id="tspan5588"
         x="1381.3773"
         y="702.80884">1</tspan></text>
    <text
       sodipodi:linespacing="125%"
       id="text5590"
       y="317.3143"
       x="1207.6716"
       style="font-style:normal;font-weight:normal;font-size:55.50901794px;line-height:125%;font-family:sans-serif;letter-spacing:0px;word-spacing:0px;fill:#000000;fill-opacity:1;stroke:none;stroke-width:1px;stroke-linecap:butt;stroke-linejoin:miter;stroke-opacity:1"
       xml:space="preserve"><tspan
         y="317.3143"
         x="1207.6716"
         id="tspan5592"
         sodipodi:role="line">2</tspan></text>
    <text
       xml:space="preserve"
       style="font-style:normal;font-weight:normal;font-size:55.50901794px;line-height:125%;font-family:sans-serif;letter-spacing:0px;word-spacing:0px;fill:#000000;fill-opacity:1;stroke:none;stroke-width:1px;stroke-linecap:butt;stroke-linejoin:miter;stroke-opacity:1"
       x="1207.6716"
       y="701.98041"
       id="text5594"
       sodipodi:linespacing="125%"><tspan
         sodipodi:role="line"
         id="tspan5596"
         x="1207.6716"
         y="701.98041">2</tspan></text>
    <text
       sodipodi:linespacing="125%"
       id="text5598"
       y="1021.5927"
       x="971.25531"
       style="font-style:normal;font-weight:normal;font-size:55.50901794px;line-height:125%;font-family:sans-serif;letter-spacing:0px;word-spacing:0px;fill:#000000;fill-opacity:1;stroke:none;stroke-width:1px;stroke-linecap:butt;stroke-linejoin:miter;stroke-opacity:1"
       xml:space="preserve"><tspan
         y="1021.5927"
         x="971.25531"
         id="tspan5600"
         sodipodi:role="line">3</tspan></text>
  </g>
</svg>
